-- Merging decision tree log ---
manifest
ADDED from /Users/user/Works/Android/alpha-master-c0e4aa78b47b09c8099a4a54e4eb410045f1384f/app/src/main/AndroidManifest.xml:2:1-43:12
	package
		ADDED from /Users/user/Works/Android/alpha-master-c0e4aa78b47b09c8099a4a54e4eb410045f1384f/app/src/main/AndroidManifest.xml:4:5-53
		INJECTED from /Users/user/Works/Android/alpha-master-c0e4aa78b47b09c8099a4a54e4eb410045f1384f/app/src/main/AndroidManifest.xml
		INJECTED from /Users/user/Works/Android/alpha-master-c0e4aa78b47b09c8099a4a54e4eb410045f1384f/app/src/main/AndroidManifest.xml
	android:versionName
		INJECTED from /Users/user/Works/Android/alpha-master-c0e4aa78b47b09c8099a4a54e4eb410045f1384f/app/src/main/AndroidManifest.xml
		INJECTED from /Users/user/Works/Android/alpha-master-c0e4aa78b47b09c8099a4a54e4eb410045f1384f/app/src/main/AndroidManifest.xml
	xmlns:tools
		ADDED from /Users/user/Works/Android/alpha-master-c0e4aa78b47b09c8099a4a54e4eb410045f1384f/app/src/main/AndroidManifest.xml:3:5-51
	xmlns:android
		ADDED from /Users/user/Works/Android/alpha-master-c0e4aa78b47b09c8099a4a54e4eb410045f1384f/app/src/main/AndroidManifest.xml:2:11-69
	android:versionCode
		INJECTED from /Users/user/Works/Android/alpha-master-c0e4aa78b47b09c8099a4a54e4eb410045f1384f/app/src/main/AndroidManifest.xml
		INJECTED from /Users/user/Works/Android/alpha-master-c0e4aa78b47b09c8099a4a54e4eb410045f1384f/app/src/main/AndroidManifest.xml
uses-permission#android.permission.INTERNET
ADDED from /Users/user/Works/Android/alpha-master-c0e4aa78b47b09c8099a4a54e4eb410045f1384f/app/src/main/AndroidManifest.xml:5:5-66
	android:name
		ADDED from /Users/user/Works/Android/alpha-master-c0e4aa78b47b09c8099a4a54e4eb410045f1384f/app/src/main/AndroidManifest.xml:5:22-64
uses-permission#android.permission.WRITE_EXTERNAL_STORAGE
ADDED from /Users/user/Works/Android/alpha-master-c0e4aa78b47b09c8099a4a54e4eb410045f1384f/app/src/main/AndroidManifest.xml:6:5-80
	android:name
		ADDED from /Users/user/Works/Android/alpha-master-c0e4aa78b47b09c8099a4a54e4eb410045f1384f/app/src/main/AndroidManifest.xml:6:22-78
uses-permission#android.permission.ACCESS_NETWORK_STATE
ADDED from /Users/user/Works/Android/alpha-master-c0e4aa78b47b09c8099a4a54e4eb410045f1384f/app/src/main/AndroidManifest.xml:7:5-79
	android:name
		ADDED from /Users/user/Works/Android/alpha-master-c0e4aa78b47b09c8099a4a54e4eb410045f1384f/app/src/main/AndroidManifest.xml:7:22-76
application
ADDED from /Users/user/Works/Android/alpha-master-c0e4aa78b47b09c8099a4a54e4eb410045f1384f/app/src/main/AndroidManifest.xml:8:5-41:19
MERGED from [com.android.support:appcompat-v7:23.4.0] /Users/user/Works/Android/alpha-master-c0e4aa78b47b09c8099a4a54e4eb410045f1384f/app/build/intermediates/exploded-aar/com.android.support/appcompat-v7/23.4.0/AndroidManifest.xml:25:5-20
MERGED from [com.android.support:animated-vector-drawable:23.4.0] /Users/user/Works/Android/alpha-master-c0e4aa78b47b09c8099a4a54e4eb410045f1384f/app/build/intermediates/exploded-aar/com.android.support/animated-vector-drawable/23.4.0/AndroidManifest.xml:7:5-20
MERGED from [com.android.support:support-vector-drawable:23.4.0] /Users/user/Works/Android/alpha-master-c0e4aa78b47b09c8099a4a54e4eb410045f1384f/app/build/intermediates/exploded-aar/com.android.support/support-vector-drawable/23.4.0/AndroidManifest.xml:7:5-20
MERGED from [com.android.support:support-v4:23.4.0] /Users/user/Works/Android/alpha-master-c0e4aa78b47b09c8099a4a54e4eb410045f1384f/app/build/intermediates/exploded-aar/com.android.support/support-v4/23.4.0/AndroidManifest.xml:22:5-20
MERGED from [com.android.support:support-v4:23.4.0] /Users/user/Works/Android/alpha-master-c0e4aa78b47b09c8099a4a54e4eb410045f1384f/app/build/intermediates/exploded-aar/com.android.support/support-v4/23.4.0/AndroidManifest.xml:22:5-20
MERGED from [com.android.support:support-vector-drawable:23.4.0] /Users/user/Works/Android/alpha-master-c0e4aa78b47b09c8099a4a54e4eb410045f1384f/app/build/intermediates/exploded-aar/com.android.support/support-vector-drawable/23.4.0/AndroidManifest.xml:7:5-20
MERGED from [com.android.support:support-v4:23.4.0] /Users/user/Works/Android/alpha-master-c0e4aa78b47b09c8099a4a54e4eb410045f1384f/app/build/intermediates/exploded-aar/com.android.support/support-v4/23.4.0/AndroidManifest.xml:22:5-20
MERGED from [com.android.support:design:23.4.0] /Users/user/Works/Android/alpha-master-c0e4aa78b47b09c8099a4a54e4eb410045f1384f/app/build/intermediates/exploded-aar/com.android.support/design/23.4.0/AndroidManifest.xml:22:5-20
MERGED from [com.android.support:support-v4:23.4.0] /Users/user/Works/Android/alpha-master-c0e4aa78b47b09c8099a4a54e4eb410045f1384f/app/build/intermediates/exploded-aar/com.android.support/support-v4/23.4.0/AndroidManifest.xml:22:5-20
MERGED from [com.android.support:appcompat-v7:23.4.0] /Users/user/Works/Android/alpha-master-c0e4aa78b47b09c8099a4a54e4eb410045f1384f/app/build/intermediates/exploded-aar/com.android.support/appcompat-v7/23.4.0/AndroidManifest.xml:25:5-20
MERGED from [com.android.support:animated-vector-drawable:23.4.0] /Users/user/Works/Android/alpha-master-c0e4aa78b47b09c8099a4a54e4eb410045f1384f/app/build/intermediates/exploded-aar/com.android.support/animated-vector-drawable/23.4.0/AndroidManifest.xml:7:5-20
MERGED from [com.android.support:support-vector-drawable:23.4.0] /Users/user/Works/Android/alpha-master-c0e4aa78b47b09c8099a4a54e4eb410045f1384f/app/build/intermediates/exploded-aar/com.android.support/support-vector-drawable/23.4.0/AndroidManifest.xml:7:5-20
MERGED from [com.android.support:support-v4:23.4.0] /Users/user/Works/Android/alpha-master-c0e4aa78b47b09c8099a4a54e4eb410045f1384f/app/build/intermediates/exploded-aar/com.android.support/support-v4/23.4.0/AndroidManifest.xml:22:5-20
MERGED from [com.android.support:support-v4:23.4.0] /Users/user/Works/Android/alpha-master-c0e4aa78b47b09c8099a4a54e4eb410045f1384f/app/build/intermediates/exploded-aar/com.android.support/support-v4/23.4.0/AndroidManifest.xml:22:5-20
MERGED from [com.android.support:support-vector-drawable:23.4.0] /Users/user/Works/Android/alpha-master-c0e4aa78b47b09c8099a4a54e4eb410045f1384f/app/build/intermediates/exploded-aar/com.android.support/support-vector-drawable/23.4.0/AndroidManifest.xml:7:5-20
MERGED from [com.android.support:support-v4:23.4.0] /Users/user/Works/Android/alpha-master-c0e4aa78b47b09c8099a4a54e4eb410045f1384f/app/build/intermediates/exploded-aar/com.android.support/support-v4/23.4.0/AndroidManifest.xml:22:5-20
MERGED from [com.android.support:support-v4:23.4.0] /Users/user/Works/Android/alpha-master-c0e4aa78b47b09c8099a4a54e4eb410045f1384f/app/build/intermediates/exploded-aar/com.android.support/support-v4/23.4.0/AndroidManifest.xml:22:5-20
MERGED from [com.facebook.android:facebook-android-sdk:4.16.0] /Users/user/Works/Android/alpha-master-c0e4aa78b47b09c8099a4a54e4eb410045f1384f/app/build/intermediates/exploded-aar/com.facebook.android/facebook-android-sdk/4.16.0/AndroidManifest.xml:28:5-38:19
MERGED from [com.android.support:support-v4:23.4.0] /Users/user/Works/Android/alpha-master-c0e4aa78b47b09c8099a4a54e4eb410045f1384f/app/build/intermediates/exploded-aar/com.android.support/support-v4/23.4.0/AndroidManifest.xml:22:5-20
MERGED from [com.android.support:appcompat-v7:23.4.0] /Users/user/Works/Android/alpha-master-c0e4aa78b47b09c8099a4a54e4eb410045f1384f/app/build/intermediates/exploded-aar/com.android.support/appcompat-v7/23.4.0/AndroidManifest.xml:25:5-20
MERGED from [com.android.support:animated-vector-drawable:23.4.0] /Users/user/Works/Android/alpha-master-c0e4aa78b47b09c8099a4a54e4eb410045f1384f/app/build/intermediates/exploded-aar/com.android.support/animated-vector-drawable/23.4.0/AndroidManifest.xml:7:5-20
MERGED from [com.android.support:support-vector-drawable:23.4.0] /Users/user/Works/Android/alpha-master-c0e4aa78b47b09c8099a4a54e4eb410045f1384f/app/build/intermediates/exploded-aar/com.android.support/support-vector-drawable/23.4.0/AndroidManifest.xml:7:5-20
MERGED from [com.android.support:support-v4:23.4.0] /Users/user/Works/Android/alpha-master-c0e4aa78b47b09c8099a4a54e4eb410045f1384f/app/build/intermediates/exploded-aar/com.android.support/support-v4/23.4.0/AndroidManifest.xml:22:5-20
MERGED from [com.android.support:support-v4:23.4.0] /Users/user/Works/Android/alpha-master-c0e4aa78b47b09c8099a4a54e4eb410045f1384f/app/build/intermediates/exploded-aar/com.android.support/support-v4/23.4.0/AndroidManifest.xml:22:5-20
MERGED from [com.android.support:support-vector-drawable:23.4.0] /Users/user/Works/Android/alpha-master-c0e4aa78b47b09c8099a4a54e4eb410045f1384f/app/build/intermediates/exploded-aar/com.android.support/support-vector-drawable/23.4.0/AndroidManifest.xml:7:5-20
MERGED from [com.android.support:support-v4:23.4.0] /Users/user/Works/Android/alpha-master-c0e4aa78b47b09c8099a4a54e4eb410045f1384f/app/build/intermediates/exploded-aar/com.android.support/support-v4/23.4.0/AndroidManifest.xml:22:5-20
MERGED from [com.android.support:cardview-v7:23.4.0] /Users/user/Works/Android/alpha-master-c0e4aa78b47b09c8099a4a54e4eb410045f1384f/app/build/intermediates/exploded-aar/com.android.support/cardview-v7/23.4.0/AndroidManifest.xml:22:5-20
MERGED from [com.android.support:customtabs:23.4.0] /Users/user/Works/Android/alpha-master-c0e4aa78b47b09c8099a4a54e4eb410045f1384f/app/build/intermediates/exploded-aar/com.android.support/customtabs/23.4.0/AndroidManifest.xml:22:5-20
MERGED from [com.android.support:support-v4:23.4.0] /Users/user/Works/Android/alpha-master-c0e4aa78b47b09c8099a4a54e4eb410045f1384f/app/build/intermediates/exploded-aar/com.android.support/support-v4/23.4.0/AndroidManifest.xml:22:5-20
MERGED from [de.hdodenhof:circleimageview:2.1.0] /Users/user/Works/Android/alpha-master-c0e4aa78b47b09c8099a4a54e4eb410045f1384f/app/build/intermediates/exploded-aar/de.hdodenhof/circleimageview/2.1.0/AndroidManifest.xml:9:5-20
	android:label
		ADDED from /Users/user/Works/Android/alpha-master-c0e4aa78b47b09c8099a4a54e4eb410045f1384f/app/src/main/AndroidManifest.xml:11:9-41
	android:supportsRtl
		ADDED from /Users/user/Works/Android/alpha-master-c0e4aa78b47b09c8099a4a54e4eb410045f1384f/app/src/main/AndroidManifest.xml:12:9-35
	android:allowBackup
		ADDED from /Users/user/Works/Android/alpha-master-c0e4aa78b47b09c8099a4a54e4eb410045f1384f/app/src/main/AndroidManifest.xml:9:9-35
	android:icon
		ADDED from /Users/user/Works/Android/alpha-master-c0e4aa78b47b09c8099a4a54e4eb410045f1384f/app/src/main/AndroidManifest.xml:10:9-38
	android:largeHeap
		ADDED from /Users/user/Works/Android/alpha-master-c0e4aa78b47b09c8099a4a54e4eb410045f1384f/app/src/main/AndroidManifest.xml:13:9-33
	android:theme
		ADDED from /Users/user/Works/Android/alpha-master-c0e4aa78b47b09c8099a4a54e4eb410045f1384f/app/src/main/AndroidManifest.xml:14:9-40
provider#com.facebook.FacebookContentProvider
ADDED from /Users/user/Works/Android/alpha-master-c0e4aa78b47b09c8099a4a54e4eb410045f1384f/app/src/main/AndroidManifest.xml:15:9-17:38
	android:authorities
		ADDED from /Users/user/Works/Android/alpha-master-c0e4aa78b47b09c8099a4a54e4eb410045f1384f/app/src/main/AndroidManifest.xml:15:19-96
	android:exported
		ADDED from /Users/user/Works/Android/alpha-master-c0e4aa78b47b09c8099a4a54e4eb410045f1384f/app/src/main/AndroidManifest.xml:17:13-36
	android:name
		ADDED from /Users/user/Works/Android/alpha-master-c0e4aa78b47b09c8099a4a54e4eb410045f1384f/app/src/main/AndroidManifest.xml:16:13-64
meta-data#com.facebook.sdk.ApplicationId
ADDED from /Users/user/Works/Android/alpha-master-c0e4aa78b47b09c8099a4a54e4eb410045f1384f/app/src/main/AndroidManifest.xml:18:9-20:54
	android:value
		ADDED from /Users/user/Works/Android/alpha-master-c0e4aa78b47b09c8099a4a54e4eb410045f1384f/app/src/main/AndroidManifest.xml:20:13-52
	android:name
		ADDED from /Users/user/Works/Android/alpha-master-c0e4aa78b47b09c8099a4a54e4eb410045f1384f/app/src/main/AndroidManifest.xml:19:13-58
activity#com.example.desarrollador.memoriaalpha.Inicio
ADDED from /Users/user/Works/Android/alpha-master-c0e4aa78b47b09c8099a4a54e4eb410045f1384f/app/src/main/AndroidManifest.xml:21:9-31:20
	android:screenOrientation
		ADDED from /Users/user/Works/Android/alpha-master-c0e4aa78b47b09c8099a4a54e4eb410045f1384f/app/src/main/AndroidManifest.xml:25:13-49
	android:label
		ADDED from /Users/user/Works/Android/alpha-master-c0e4aa78b47b09c8099a4a54e4eb410045f1384f/app/src/main/AndroidManifest.xml:23:13-45
	android:theme
		ADDED from /Users/user/Works/Android/alpha-master-c0e4aa78b47b09c8099a4a54e4eb410045f1384f/app/src/main/AndroidManifest.xml:24:13-56
	android:name
		ADDED from /Users/user/Works/Android/alpha-master-c0e4aa78b47b09c8099a4a54e4eb410045f1384f/app/src/main/AndroidManifest.xml:22:13-35
intent-filter#android.intent.action.MAIN+android.intent.category.LAUNCHER
ADDED from /Users/user/Works/Android/alpha-master-c0e4aa78b47b09c8099a4a54e4eb410045f1384f/app/src/main/AndroidManifest.xml:26:13-30:29
action#android.intent.action.MAIN
ADDED from /Users/user/Works/Android/alpha-master-c0e4aa78b47b09c8099a4a54e4eb410045f1384f/app/src/main/AndroidManifest.xml:27:17-69
	android:name
		ADDED from /Users/user/Works/Android/alpha-master-c0e4aa78b47b09c8099a4a54e4eb410045f1384f/app/src/main/AndroidManifest.xml:27:25-66
category#android.intent.category.LAUNCHER
ADDED from /Users/user/Works/Android/alpha-master-c0e4aa78b47b09c8099a4a54e4eb410045f1384f/app/src/main/AndroidManifest.xml:29:17-77
	android:name
		ADDED from /Users/user/Works/Android/alpha-master-c0e4aa78b47b09c8099a4a54e4eb410045f1384f/app/src/main/AndroidManifest.xml:29:27-74
activity#com.example.desarrollador.memoriaalpha.MainActivity
ADDED from /Users/user/Works/Android/alpha-master-c0e4aa78b47b09c8099a4a54e4eb410045f1384f/app/src/main/AndroidManifest.xml:32:9-34:51
	android:screenOrientation
		ADDED from /Users/user/Works/Android/alpha-master-c0e4aa78b47b09c8099a4a54e4eb410045f1384f/app/src/main/AndroidManifest.xml:34:13-49
	android:theme
		ADDED from /Users/user/Works/Android/alpha-master-c0e4aa78b47b09c8099a4a54e4eb410045f1384f/app/src/main/AndroidManifest.xml:33:13-56
	android:name
		ADDED from /Users/user/Works/Android/alpha-master-c0e4aa78b47b09c8099a4a54e4eb410045f1384f/app/src/main/AndroidManifest.xml:32:19-47
activity#com.facebook.FacebookActivity
ADDED from /Users/user/Works/Android/alpha-master-c0e4aa78b47b09c8099a4a54e4eb410045f1384f/app/src/main/AndroidManifest.xml:35:9-40:45
MERGED from [com.facebook.android:facebook-android-sdk:4.16.0] /Users/user/Works/Android/alpha-master-c0e4aa78b47b09c8099a4a54e4eb410045f1384f/app/build/intermediates/exploded-aar/com.facebook.android/facebook-android-sdk/4.16.0/AndroidManifest.xml:29:9-32:66
	android:label
		ADDED from /Users/user/Works/Android/alpha-master-c0e4aa78b47b09c8099a4a54e4eb410045f1384f/app/src/main/AndroidManifest.xml:38:13-45
	android:configChanges
		ADDED from /Users/user/Works/Android/alpha-master-c0e4aa78b47b09c8099a4a54e4eb410045f1384f/app/src/main/AndroidManifest.xml:37:13-96
	android:theme
		ADDED from /Users/user/Works/Android/alpha-master-c0e4aa78b47b09c8099a4a54e4eb410045f1384f/app/src/main/AndroidManifest.xml:39:13-72
		REJECTED from [com.facebook.android:facebook-android-sdk:4.16.0] /Users/user/Works/Android/alpha-master-c0e4aa78b47b09c8099a4a54e4eb410045f1384f/app/build/intermediates/exploded-aar/com.facebook.android/facebook-android-sdk/4.16.0/AndroidManifest.xml:32:13-63
	tools:replace
		ADDED from /Users/user/Works/Android/alpha-master-c0e4aa78b47b09c8099a4a54e4eb410045f1384f/app/src/main/AndroidManifest.xml:40:13-43
	android:name
		ADDED from /Users/user/Works/Android/alpha-master-c0e4aa78b47b09c8099a4a54e4eb410045f1384f/app/src/main/AndroidManifest.xml:36:13-57
uses-sdk
INJECTED from /Users/user/Works/Android/alpha-master-c0e4aa78b47b09c8099a4a54e4eb410045f1384f/app/src/main/AndroidManifest.xml reason: use-sdk injection requested
MERGED from [com.android.support:appcompat-v7:23.4.0] /Users/user/Works/Android/alpha-master-c0e4aa78b47b09c8099a4a54e4eb410045f1384f/app/build/intermediates/exploded-aar/com.android.support/appcompat-v7/23.4.0/AndroidManifest.xml:21:5-23:78
MERGED from [com.android.support:animated-vector-drawable:23.4.0] /Users/user/Works/Android/alpha-master-c0e4aa78b47b09c8099a4a54e4eb410045f1384f/app/build/intermediates/exploded-aar/com.android.support/animated-vector-drawable/23.4.0/AndroidManifest.xml:5:5-44
MERGED from [com.android.support:support-vector-drawable:23.4.0] /Users/user/Works/Android/alpha-master-c0e4aa78b47b09c8099a4a54e4eb410045f1384f/app/build/intermediates/exploded-aar/com.android.support/support-vector-drawable/23.4.0/AndroidManifest.xml:5:5-43
MERGED from [com.android.support:support-v4:23.4.0] /Users/user/Works/Android/alpha-master-c0e4aa78b47b09c8099a4a54e4eb410045f1384f/app/build/intermediates/exploded-aar/com.android.support/support-v4/23.4.0/AndroidManifest.xml:20:5-43
MERGED from [com.android.support:support-v4:23.4.0] /Users/user/Works/Android/alpha-master-c0e4aa78b47b09c8099a4a54e4eb410045f1384f/app/build/intermediates/exploded-aar/com.android.support/support-v4/23.4.0/AndroidManifest.xml:20:5-43
MERGED from [com.android.support:support-vector-drawable:23.4.0] /Users/user/Works/Android/alpha-master-c0e4aa78b47b09c8099a4a54e4eb410045f1384f/app/build/intermediates/exploded-aar/com.android.support/support-vector-drawable/23.4.0/AndroidManifest.xml:5:5-43
MERGED from [com.android.support:support-v4:23.4.0] /Users/user/Works/Android/alpha-master-c0e4aa78b47b09c8099a4a54e4eb410045f1384f/app/build/intermediates/exploded-aar/com.android.support/support-v4/23.4.0/AndroidManifest.xml:20:5-43
MERGED from [com.android.support:design:23.4.0] /Users/user/Works/Android/alpha-master-c0e4aa78b47b09c8099a4a54e4eb410045f1384f/app/build/intermediates/exploded-aar/com.android.support/design/23.4.0/AndroidManifest.xml:20:5-43
MERGED from [com.android.support:recyclerview-v7:23.4.0] /Users/user/Works/Android/alpha-master-c0e4aa78b47b09c8099a4a54e4eb410045f1384f/app/build/intermediates/exploded-aar/com.android.support/recyclerview-v7/23.4.0/AndroidManifest.xml:20:5-43
MERGED from [com.android.support:support-v4:23.4.0] /Users/user/Works/Android/alpha-master-c0e4aa78b47b09c8099a4a54e4eb410045f1384f/app/build/intermediates/exploded-aar/com.android.support/support-v4/23.4.0/AndroidManifest.xml:20:5-43
MERGED from [com.android.support:appcompat-v7:23.4.0] /Users/user/Works/Android/alpha-master-c0e4aa78b47b09c8099a4a54e4eb410045f1384f/app/build/intermediates/exploded-aar/com.android.support/appcompat-v7/23.4.0/AndroidManifest.xml:21:5-23:78
MERGED from [com.android.support:animated-vector-drawable:23.4.0] /Users/user/Works/Android/alpha-master-c0e4aa78b47b09c8099a4a54e4eb410045f1384f/app/build/intermediates/exploded-aar/com.android.support/animated-vector-drawable/23.4.0/AndroidManifest.xml:5:5-44
MERGED from [com.android.support:support-vector-drawable:23.4.0] /Users/user/Works/Android/alpha-master-c0e4aa78b47b09c8099a4a54e4eb410045f1384f/app/build/intermediates/exploded-aar/com.android.support/support-vector-drawable/23.4.0/AndroidManifest.xml:5:5-43
MERGED from [com.android.support:support-v4:23.4.0] /Users/user/Works/Android/alpha-master-c0e4aa78b47b09c8099a4a54e4eb410045f1384f/app/build/intermediates/exploded-aar/com.android.support/support-v4/23.4.0/AndroidManifest.xml:20:5-43
MERGED from [com.android.support:support-v4:23.4.0] /Users/user/Works/Android/alpha-master-c0e4aa78b47b09c8099a4a54e4eb410045f1384f/app/build/intermediates/exploded-aar/com.android.support/support-v4/23.4.0/AndroidManifest.xml:20:5-43
MERGED from [com.android.support:support-vector-drawable:23.4.0] /Users/user/Works/Android/alpha-master-c0e4aa78b47b09c8099a4a54e4eb410045f1384f/app/build/intermediates/exploded-aar/com.android.support/support-vector-drawable/23.4.0/AndroidManifest.xml:5:5-43
MERGED from [com.android.support:support-v4:23.4.0] /Users/user/Works/Android/alpha-master-c0e4aa78b47b09c8099a4a54e4eb410045f1384f/app/build/intermediates/exploded-aar/com.android.support/support-v4/23.4.0/AndroidManifest.xml:20:5-43
MERGED from [com.android.support:support-v4:23.4.0] /Users/user/Works/Android/alpha-master-c0e4aa78b47b09c8099a4a54e4eb410045f1384f/app/build/intermediates/exploded-aar/com.android.support/support-v4/23.4.0/AndroidManifest.xml:20:5-43
MERGED from [com.facebook.android:facebook-android-sdk:4.16.0] /Users/user/Works/Android/alpha-master-c0e4aa78b47b09c8099a4a54e4eb410045f1384f/app/build/intermediates/exploded-aar/com.facebook.android/facebook-android-sdk/4.16.0/AndroidManifest.xml:24:5-26:41
MERGED from [com.android.support:support-v4:23.4.0] /Users/user/Works/Android/alpha-master-c0e4aa78b47b09c8099a4a54e4eb410045f1384f/app/build/intermediates/exploded-aar/com.android.support/support-v4/23.4.0/AndroidManifest.xml:20:5-43
MERGED from [com.android.support:appcompat-v7:23.4.0] /Users/user/Works/Android/alpha-master-c0e4aa78b47b09c8099a4a54e4eb410045f1384f/app/build/intermediates/exploded-aar/com.android.support/appcompat-v7/23.4.0/AndroidManifest.xml:21:5-23:78
MERGED from [com.android.support:animated-vector-drawable:23.4.0] /Users/user/Works/Android/alpha-master-c0e4aa78b47b09c8099a4a54e4eb410045f1384f/app/build/intermediates/exploded-aar/com.android.support/animated-vector-drawable/23.4.0/AndroidManifest.xml:5:5-44
MERGED from [com.android.support:support-vector-drawable:23.4.0] /Users/user/Works/Android/alpha-master-c0e4aa78b47b09c8099a4a54e4eb410045f1384f/app/build/intermediates/exploded-aar/com.android.support/support-vector-drawable/23.4.0/AndroidManifest.xml:5:5-43
MERGED from [com.android.support:support-v4:23.4.0] /Users/user/Works/Android/alpha-master-c0e4aa78b47b09c8099a4a54e4eb410045f1384f/app/build/intermediates/exploded-aar/com.android.support/support-v4/23.4.0/AndroidManifest.xml:20:5-43
MERGED from [com.android.support:support-v4:23.4.0] /Users/user/Works/Android/alpha-master-c0e4aa78b47b09c8099a4a54e4eb410045f1384f/app/build/intermediates/exploded-aar/com.android.support/support-v4/23.4.0/AndroidManifest.xml:20:5-43
MERGED from [com.android.support:support-vector-drawable:23.4.0] /Users/user/Works/Android/alpha-master-c0e4aa78b47b09c8099a4a54e4eb410045f1384f/app/build/intermediates/exploded-aar/com.android.support/support-vector-drawable/23.4.0/AndroidManifest.xml:5:5-43
MERGED from [com.android.support:support-v4:23.4.0] /Users/user/Works/Android/alpha-master-c0e4aa78b47b09c8099a4a54e4eb410045f1384f/app/build/intermediates/exploded-aar/com.android.support/support-v4/23.4.0/AndroidManifest.xml:20:5-43
MERGED from [com.android.support:cardview-v7:23.4.0] /Users/user/Works/Android/alpha-master-c0e4aa78b47b09c8099a4a54e4eb410045f1384f/app/build/intermediates/exploded-aar/com.android.support/cardview-v7/23.4.0/AndroidManifest.xml:20:5-43
MERGED from [com.android.support:customtabs:23.4.0] /Users/user/Works/Android/alpha-master-c0e4aa78b47b09c8099a4a54e4eb410045f1384f/app/build/intermediates/exploded-aar/com.android.support/customtabs/23.4.0/AndroidManifest.xml:20:5-44
MERGED from [com.android.support:support-v4:23.4.0] /Users/user/Works/Android/alpha-master-c0e4aa78b47b09c8099a4a54e4eb410045f1384f/app/build/intermediates/exploded-aar/com.android.support/support-v4/23.4.0/AndroidManifest.xml:20:5-43
MERGED from [me.grantland:autofittextview:0.2.1] /Users/user/Works/Android/alpha-master-c0e4aa78b47b09c8099a4a54e4eb410045f1384f/app/build/intermediates/exploded-aar/me.grantland/autofittextview/0.2.1/AndroidManifest.xml:7:5-9:41
MERGED from [de.hdodenhof:circleimageview:2.1.0] /Users/user/Works/Android/alpha-master-c0e4aa78b47b09c8099a4a54e4eb410045f1384f/app/build/intermediates/exploded-aar/de.hdodenhof/circleimageview/2.1.0/AndroidManifest.xml:5:5-7:41
	tools:overrideLibrary
		ADDED from [com.android.support:appcompat-v7:23.4.0] /Users/user/Works/Android/alpha-master-c0e4aa78b47b09c8099a4a54e4eb410045f1384f/app/build/intermediates/exploded-aar/com.android.support/appcompat-v7/23.4.0/AndroidManifest.xml:23:9-75
	android:targetSdkVersion
		INJECTED from /Users/user/Works/Android/alpha-master-c0e4aa78b47b09c8099a4a54e4eb410045f1384f/app/src/main/AndroidManifest.xml
		INJECTED from /Users/user/Works/Android/alpha-master-c0e4aa78b47b09c8099a4a54e4eb410045f1384f/app/src/main/AndroidManifest.xml
	android:minSdkVersion
		INJECTED from /Users/user/Works/Android/alpha-master-c0e4aa78b47b09c8099a4a54e4eb410045f1384f/app/src/main/AndroidManifest.xml
		INJECTED from /Users/user/Works/Android/alpha-master-c0e4aa78b47b09c8099a4a54e4eb410045f1384f/app/src/main/AndroidManifest.xml
activity#com.facebook.CustomTabActivity
ADDED from [com.facebook.android:facebook-android-sdk:4.16.0] /Users/user/Works/Android/alpha-master-c0e4aa78b47b09c8099a4a54e4eb410045f1384f/app/build/intermediates/exploded-aar/com.facebook.android/facebook-android-sdk/4.16.0/AndroidManifest.xml:33:9-36:20
	android:exported
		ADDED from [com.facebook.android:facebook-android-sdk:4.16.0] /Users/user/Works/Android/alpha-master-c0e4aa78b47b09c8099a4a54e4eb410045f1384f/app/build/intermediates/exploded-aar/com.facebook.android/facebook-android-sdk/4.16.0/AndroidManifest.xml:35:13-36
	android:name
		ADDED from [com.facebook.android:facebook-android-sdk:4.16.0] /Users/user/Works/Android/alpha-master-c0e4aa78b47b09c8099a4a54e4eb410045f1384f/app/build/intermediates/exploded-aar/com.facebook.android/facebook-android-sdk/4.16.0/AndroidManifest.xml:34:13-58
activity#com.facebook.CustomTabMainActivity
ADDED from [com.facebook.android:facebook-android-sdk:4.16.0] /Users/user/Works/Android/alpha-master-c0e4aa78b47b09c8099a4a54e4eb410045f1384f/app/build/intermediates/exploded-aar/com.facebook.android/facebook-android-sdk/4.16.0/AndroidManifest.xml:37:9-71
	android:name
		ADDED from [com.facebook.android:facebook-android-sdk:4.16.0] /Users/user/Works/Android/alpha-master-c0e4aa78b47b09c8099a4a54e4eb410045f1384f/app/build/intermediates/exploded-aar/com.facebook.android/facebook-android-sdk/4.16.0/AndroidManifest.xml:37:19-68
